@startuml
CameraSystem - DetectionSystem:  > 
DetectionSystem -- NovigationRobot:  >
NovigationRobot -- Robot :  > 
Robot -- StatusRobotSystem:   <
StatusRobotSystem - EngineRobot: >
Painting  - Сlew :  <
Сlew - StatusRobotSystem: <
Pollution -- CameraRobot: >
CameraRobot - DetectionSystem:  <

DetectionSystem - StatusRobotSystem:  > 

CameraRobot - StatusRobotSystem: <
Pollution - CameraSystem: >
@enduml
